\relax 
\@writefile{lof}{\contentsline {figure}{\numberline {1}{\ignorespaces Plots \((x_0, ...)\)\relax }}{1}}
\@writefile{lof}{\contentsline {figure}{\numberline {2}{\ignorespaces Plots \((x_1, ...)\)\relax }}{2}}
\@writefile{lof}{\contentsline {figure}{\numberline {3}{\ignorespaces Plots \((x_2, ...)\)\relax }}{3}}
\@writefile{lof}{\contentsline {figure}{\numberline {4}{\ignorespaces Plots \((x_3, ...)\)\relax }}{4}}
\@writefile{lof}{\contentsline {figure}{\numberline {5}{\ignorespaces GMM Plots\relax }}{6}}
